1st_ToH2020/Matlab/Acc3.21/500.csv

Model,MDO4024C
Firmware Version,1.02

Waveform Type,ANALOG,,,
Point Format,Y,,,
Horizontal Units,s,,,
Horizontal Scale,0.2,,,
Horizontal Delay,0,,,
Sample Interval,0.0002,,,
Record Length,10000,,,
Gating,0.0% to 100.0%,,,
Probe Attenuation,10,10,10,10
Vertical Units,V,V,V,V
Vertical Offset,0,0,0,0
Vertical Scale,0.05,0.05,0.05,1
Vertical Position,0,0,0,0
,,,,
,,,,
,,,,
Label,,,,
TIME,CH1,CH2,CH3,CH4
-1.000000e+00,-0.0105,-0.0589141,0.00185156,1.01516
-9.998000e-01,-0.0123438,-0.0678906,0.00141406,1.51562
-9.996000e-01,-0.00905469,-0.0498672,0.00150781,1.43969
-9.994000e-01,-0.00249219,-0.0111797,0.00260156,0.816875
-9.992000e-01,0.00414063,0.0276328,0.00396094,-0.0982813
-9.990000e-01,0.00877344,0.0567031,0.00492188,-0.971562
-9.988000e-01,0.0104922,0.0636562,0.00460937,-1.46719
-9.986000e-01,0.00919531,0.0502891,0.00310938,-1.39109
-9.984000e-01,0.00244531,0.0157656,0.00204688,-0.768594
-9.982000e-01,-0.00421094,-0.0247188,0.00114844,0.141875
-9.980000e-01,-0.00899219,-0.0567422,0.000320313,1.01656
-9.978000e-01,-0.0106953,-0.065,-0.000140625,1.51656
-9.976000e-01,-0.00752344,-0.0477344,-0.000148437,1.44172
-9.974000e-01,-0.00105469,-0.0109766,0.000625,0.817344
-9.972000e-01,0.00604688,0.0270156,0.00154688,-0.0976562
-9.970000e-01,0.0101484,0.0559844,0.0024375,-0.9725
-9.968000e-01,0.0112344,0.0631953,0.00328125,-1.46938
-9.966000e-01,0.00815625,0.0509375,0.00388281,-1.39297
-9.964000e-01,0.000984375,0.0151484,0.00372656,-0.769687
-9.962000e-01,-0.00585938,-0.0262656,0.00275781,0.140781
-9.960000e-01,-0.0104141,-0.0588203,0.00133594,1.01531
-9.958000e-01,-0.0124531,-0.0675703,0.0009375,1.51516
-9.956000e-01,-0.00925,-0.0495078,0.00109375,1.43969
-9.954000e-01,-0.00255469,-0.0107891,0.00253906,0.815312
-9.952000e-01,0.00401563,0.0277969,0.00317188,-0.0996875
-9.950000e-01,0.00844531,0.0568828,0.00408594,-0.97125
-9.948000e-01,0.0104688,0.0635391,0.004,-1.46969
-9.946000e-01,0.008875,0.0502969,0.00284375,-1.39312
-9.944000e-01,0.00228906,0.0155547,0.00180469,-0.770156
-9.942000e-01,-0.00433594,-0.0248828,0.000625,0.141406
-9.940000e-01,-0.00907812,-0.0567812,-0.000164063,1.01609
-9.938000e-01,-0.0112734,-0.0647969,-0.00034375,1.51703
-9.936000e-01,-0.00778906,-0.0472578,-0.000273438,1.44141
-9.934000e-01,-0.00124219,-0.0106563,0.000554688,0.817969
-9.932000e-01,0.005625,0.0274141,0.00115625,-0.0971875
-9.930000e-01,0.0101641,0.0562578,0.00198438,-0.970469
-9.928000e-01,0.0108125,0.0637109,0.00265625,-1.46906
-9.926000e-01,0.00804688,0.0510859,0.00332031,-1.39234
-9.924000e-01,0.000585937,0.0153906,0.00333594,-0.769844
-9.922000e-01,-0.00592969,-0.0258828,0.00232812,0.140937
-9.920000e-01,-0.0110469,-0.0591016,0.001375,1.01547
-9.918000e-01,-0.0128047,-0.0679531,0.00108594,1.51594
-9.916000e-01,-0.00971875,-0.0500859,0.00107031,1.43766
-9.914000e-01,-0.00292187,-0.0112031,0.00211719,0.817188
-9.912000e-01,0.00371094,0.0275703,0.00344531,-0.0979688
-9.910000e-01,0.00807813,0.0566562,0.00415625,-0.970156
-9.908000e-01,0.0100859,0.0634688,0.00367969,-1.46625
-9.906000e-01,0.00896094,0.0502969,0.002625,-1.39187
-9.904000e-01,0.00228906,0.0157344,0.0015,-0.768594
-9.902000e-01,-0.00432031,-0.0251797,0.000742188,0.142344
-9.900000e-01,-0.00944531,-0.0571328,-4.6875e-05,1.01594
-9.898000e-01,-0.0112734,-0.0652422,-0.000265625,1.51719
-9.896000e-01,-0.00816406,-0.0478672,5.46875e-05,1.44078
-9.894000e-01,-0.00129688,-0.0109375,0.0008125,0.819219
-9.892000e-01,0.00555469,0.0268906,0.00171875,-0.0971875
-9.890000e-01,0.01,0.0558906,0.00274219,-0.97125
-9.888000e-01,0.0108906,0.0633281,0.00346094,-1.46781
-9.886000e-01,0.00785156,0.0509375,0.00382812,-1.39203
-9.884000e-01,0.000648438,0.0151562,0.00378906,-0.76875
-9.882000e-01,-0.00620313,-0.0263281,0.00283594,0.140937
-9.880000e-01,-0.0109609,-0.0591875,0.00192187,1.01672
-9.878000e-01,-0.0127188,-0.0679844,0.00111719,1.51484
-9.876000e-01,-0.00941406,-0.0495547,0.00121875,1.43828
-9.874000e-01,-0.00260156,-0.0110156,0.00247656,0.816406
-9.872000e-01,0.00379687,0.0279297,0.00384375,-0.0982813
-9.870000e-01,0.00835938,0.0567344,0.00414844,-0.972812
-9.868000e-01,0.0105,0.0631875,0.00375781,-1.46969
-9.866000e-01,0.00882813,0.0502812,0.00265625,-1.39312
-9.864000e-01,0.00217188,0.0155156,0.00160156,-0.769219
-9.862000e-01,-0.00441406,-0.0249453,0.0006875,0.142187
-9.860000e-01,-0.00942187,-0.0572187,-7.03125e-05,1.01578
-9.858000e-01,-0.0112656,-0.065375,-0.000234375,1.51531
-9.856000e-01,-0.00802344,-0.0481094,4.6875e-05,1.43781
-9.854000e-01,-0.001375,-0.0111406,0.000796875,0.81625
-9.852000e-01,0.00554687,0.0268437,0.0015625,-0.0995313
-9.850000e-01,0.00984375,0.0560859,0.00259375,-0.972969
-9.848000e-01,0.010625,0.0634297,0.00325781,-1.46891
-9.846000e-01,0.00782813,0.0509609,0.00417969,-1.39328
-9.844000e-01,0.000632813,0.0149063,0.00385937,-0.768281
-9.842000e-01,-0.00596094,-0.0260937,0.00314844,0.141875
-9.840000e-01,-0.011,-0.0588906,0.00189062,1.01703
-9.838000e-01,-0.0127422,-0.0679453,0.00144531,1.51531
-9.836000e-01,-0.00947656,-0.0499297,0.00153125,1.43656
-9.834000e-01,-0.00277344,-0.0108672,0.00259375,0.814688
-9.832000e-01,0.00371094,0.0276875,0.00354688,-0.1
-9.830000e-01,0.00846875,0.0565312,0.00463281,-0.971562
-9.828000e-01,0.0103672,0.0631484,0.004375,-1.4675
-9.826000e-01,0.00899219,0.0499531,0.00317969,-1.39187
-9.824000e-01,0.00246094,0.0155312,0.00207813,-0.767344
-9.822000e-01,-0.00421094,-0.0248672,0.00096875,0.142969
-9.820000e-01,-0.00903906,-0.0568281,0.000125,1.01625
-9.818000e-01,-0.0107891,-0.0653125,-0.000109375,1.51641
-9.816000e-01,-0.00757031,-0.0480625,4.6875e-05,1.43828
-9.814000e-01,-0.00105469,-0.0108594,0.000742188,0.814375
-9.812000e-01,0.00589844,0.0268906,0.00175,-0.0992188
-9.810000e-01,0.0104922,0.055875,0.00269531,-0.971719
-9.808000e-01,0.0111328,0.0633516,0.0035625,-1.46844
-9.806000e-01,0.00835938,0.0509844,0.004,-1.39281
-9.804000e-01,0.00096875,0.0151172,0.00383594,-0.767813
-9.802000e-01,-0.00574219,-0.0262187,0.00332812,0.140625
-9.800000e-01,-0.0103516,-0.0590781,0.00228125,1.01469
-9.798000e-01,-0.0123438,-0.067875,0.00177344,1.51641
-9.796000e-01,-0.00904687,-0.0497969,0.00150781,1.43875
-9.794000e-01,-0.00232812,-0.0110937,0.00272656,0.816406
-9.792000e-01,0.00414844,0.0276406,0.00407031,-0.0989063
-9.790000e-01,0.00873438,0.0564687,0.00486719,-0.970469
-9.788000e-01,0.0104531,0.0634062,0.00407813,-1.46641
-9.786000e-01,0.00926562,0.0502812,0.00314844,-1.39141
-9.784000e-01,0.00271875,0.0157344,0.00195312,-0.7675
-9.782000e-01,-0.00407813,-0.0247188,0.00101563,0.142031
-9.780000e-01,-0.00860938,-0.0570078,-3.125e-05,1.01625
-9.778000e-01,-0.0107969,-0.064875,-4.6875e-05,1.51547
-9.776000e-01,-0.00717969,-0.0476641,0.000195313,1.43969
-9.774000e-01,-0.000851562,-0.0105859,0.000875,0.816875
-9.772000e-01,0.00599219,0.0270156,0.00171875,-0.098125
-9.770000e-01,0.0106563,0.0563828,0.00285937,-0.972187
-9.768000e-01,0.0115,0.0636875,0.00335156,-1.46922
-9.766000e-01,0.00861719,0.0514453,0.00424219,-1.39344
-9.764000e-01,0.00111719,0.0154531,0.00400781,-0.770156
-9.762000e-01,-0.00582812,-0.0259766,0.00289844,0.140937
-9.760000e-01,-0.0103594,-0.0588203,0.00188281,1.01531
-9.758000e-01,-0.0124609,-0.0676797,0.00114062,1.515
-9.756000e-01,-0.00895313,-0.0497969,0.00161719,1.43688
-9.754000e-01,-0.00238281,-0.0110469,0.00285156,0.813594
-9.752000e-01,0.004125,0.0279219,0.00396875,-0.101406
-9.750000e-01,0.00866406,0.0569375,0.00478906,-0.973438
-9.748000e-01,0.0108594,0.0631328,0.00435938,-1.46953
-9.746000e-01,0.00949219,0.0501094,0.00323438,-1.39266
-9.744000e-01,0.00257031,0.015375,0.00217188,-0.767969
-9.742000e-01,-0.0044375,-0.0249844,0.000789063,0.1425
-9.740000e-01,-0.00909375,-0.0571016,7.8125e-05,1.01469
-9.738000e-01,-0.01075,-0.0651484,-0.00021875,1.51516
-9.736000e-01,-0.0075625,-0.0477266,0.00028125,1.43891
-9.734000e-01,-0.00133594,-0.0105781,0.000734375,0.815469
-9.732000e-01,0.005625,0.0273281,0.00161719,-0.0992188
-9.730000e-01,0.0102656,0.0565391,0.00249219,-0.973594
-9.728000e-01,0.0108516,0.0636641,0.00335937,-1.47
-9.726000e-01,0.00824219,0.0508281,0.00353125,-1.39469
-9.724000e-01,0.001,0.0152734,0.00360938,-0.770313
-9.722000e-01,-0.00610156,-0.0263672,0.0024375,0.140156
-9.720000e-01,-0.0108125,-0.059125,0.00115625,1.01344
-9.718000e-01,-0.0127969,-0.0678594,0.000578125,1.51438
-9.716000e-01,-0.00960156,-0.04975,0.00065625,1.43781
-9.714000e-01,-0.00282812,-0.0111094,0.00196094,0.815625
-9.712000e-01,0.00382031,0.0277656,0.00321875,-0.0989063
-9.710000e-01,0.00846875,0.0564687,0.00424219,-0.973125
-9.708000e-01,0.0104375,0.0632188,0.003625,-1.46938
-9.706000e-01,0.00903125,0.0500703,0.00298438,-1.3925
-9.704000e-01,0.00228906,0.0155703,0.00180469,-0.768281
-9.702000e-01,-0.00421094,-0.0251172,0.000617188,0.143594
-9.700000e-01,-0.00917969,-0.0571719,-0.000195313,1.01766
-9.698000e-01,-0.0111562,-0.0656562,-0.000421875,1.51547
-9.696000e-01,-0.00795313,-0.0479531,4.6875e-05,1.43953
-9.694000e-01,-0.00114062,-0.011,0.000945312,0.815156
-9.692000e-01,0.00564844,0.0271406,0.00171875,-0.0992188
-9.690000e-01,0.0099375,0.0560859,0.0025625,-0.972812
-9.688000e-01,0.0109688,0.0634141,0.00302344,-1.46859
-9.686000e-01,0.00794531,0.0508203,0.0038125,-1.39219
-9.684000e-01,0.000625,0.0150625,0.00310156,-0.769062
-9.682000e-01,-0.00600781,-0.0262266,0.00230469,0.141719
-9.680000e-01,-0.0105625,-0.0590234,0.00144531,1.01594
-9.678000e-01,-0.01275,-0.068125,0.000734375,1.51547
-9.676000e-01,-0.00923437,-0.0498437,0.00090625,1.43797
-9.674000e-01,-0.00286719,-0.0114687,0.00236719,0.815
-9.672000e-01,0.00370313,0.0275156,0.00385937,-0.0990625
-9.670000e-01,0.008375,0.0563594,0.00428906,-0.972031
-9.668000e-01,0.0102813,0.0632812,0.00361719,-1.46891
-9.666000e-01,0.00871875,0.0502031,0.00269531,-1.39266
-9.664000e-01,0.00232812,0.0156875,0.00159375,-0.767188
-9.662000e-01,-0.00439844,-0.0248672,0.0006875,0.143281
-9.660000e-01,-0.00930469,-0.0571094,-3.125e-05,1.01687
-9.658000e-01,-0.0111016,-0.0654062,-0.000273438,1.51734
-9.656000e-01,-0.00784375,-0.0482031,4.6875e-05,1.43953
-9.654000e-01,-0.00123438,-0.0112109,0.000921875,0.814375
-9.652000e-01,0.00571094,0.027125,0.00175781,-0.100781
-9.650000e-01,0.00988281,0.0557969,0.00250781,-0.974531
-9.648000e-01,0.0109297,0.0633984,0.00329687,-1.46984
-9.646000e-01,0.00807813,0.0508984,0.00346875,-1.39563
-9.644000e-01,0.000726562,0.0148984,0.00351563,-0.767656
-9.642000e-01,-0.00571875,-0.0263594,0.00252344,0.140781
-9.640000e-01,-0.0105234,-0.0589609,0.001625,1.015
-9.638000e-01,-0.0127656,-0.0680547,0.000953125,1.51453
-9.636000e-01,-0.00941406,-0.0497109,0.00101563,1.43609
-9.634000e-01,-0.00257031,-0.0112656,0.00234375,0.8125
-9.632000e-01,0.00386719,0.0275234,0.00364844,-0.102656
-9.630000e-01,0.0085625,0.0563203,0.00425781,-0.975469
-9.628000e-01,0.0107891,0.0630078,0.00384375,-1.47094
-9.626000e-01,0.00904687,0.0500937,0.00302344,-1.39187
-9.624000e-01,0.00261719,0.0153516,0.00177344,-0.767813
-9.622000e-01,-0.00424219,-0.0254063,0.000640625,0.142656
-9.620000e-01,-0.00900781,-0.0571797,-0.000234375,1.01703
-9.618000e-01,-0.0109922,-0.065625,-0.000445313,1.51672
-9.616000e-01,-0.007875,-0.0482031,5.46875e-05,1.43953
-9.614000e-01,-0.000929688,-0.0110078,0.0006875,0.816875
-9.612000e-01,0.00576562,0.0272344,0.001625,-0.098125
-9.610000e-01,0.0106094,0.0560469,0.00263281,-0.971094
-9.608000e-01,0.0112891,0.0634844,0.00327344,-1.46719
-9.606000e-01,0.00833594,0.0511172,0.00396875,-1.39172
-9.604000e-01,0.00111719,0.0151328,0.00378906,-0.768594
-9.602000e-01,-0.00592188,-0.0265391,0.00289844,0.141875
-9.600000e-01,-0.0105156,-0.0593438,0.00167187,1.01578
-9.598000e-01,-0.0125156,-0.0681953,0.00123438,1.51672
-9.596000e-01,-0.00929687,-0.0500078,0.00157031,1.43813
-9.594000e-01,-0.0024375,-0.0114375,0.00253906,0.815
-9.592000e-01,0.0040625,0.0276172,0.00383594,-0.100625
-9.590000e-01,0.00851563,0.0565937,0.00461719,-0.972344
-9.588000e-01,0.0106719,0.0631406,0.00417969,-1.46672
-9.586000e-01,0.00914062,0.049875,0.00303906,-1.39078
-9.584000e-01,0.00272656,0.0153203,0.0018125,-0.766406
-9.582000e-01,-0.00432031,-0.0254219,0.00105469,0.143281
-9.580000e-01,-0.00896094,-0.0572656,0.000179687,1.01812
-9.578000e-01,-0.0108516,-0.0654375,3.125e-05,1.51578
-9.576000e-01,-0.00736719,-0.0478047,0.00015625,1.43875
-9.574000e-01,-0.000859375,-0.0109297,0.000945312,0.814375
-9.572000e-01,0.00624219,0.0268203,0.00175,-0.100625
-9.570000e-01,0.0101406,0.0558594,0.00247656,-0.973438
-9.568000e-01,0.0111719,0.0634766,0.00320313,-1.46953
-9.566000e-01,0.00838281,0.0508672,0.00379687,-1.3925
-9.564000e-01,0.000828125,0.0150469,0.00366406,-0.769219
-9.562000e-01,-0.00596875,-0.0263047,0.00279687,0.142656
-9.560000e-01,-0.0106484,-0.05925,0.0015625,1.015
-9.558000e-01,-0.0127422,-0.068,0.00116406,1.51609
-9.556000e-01,-0.00940625,-0.0500078,0.00105469,1.43797
-9.554000e-01,-0.00240625,-0.0111562,0.00252344,0.813281
-9.552000e-01,0.00421875,0.0273516,0.00365625,-0.102031
-9.550000e-01,0.00880469,0.0560391,0.00464062,-0.974219
-9.548000e-01,0.0107344,0.0629609,0.00402344,-1.46938
-9.546000e-01,0.00925,0.0495781,0.00340625,-1.39234
-9.544000e-01,0.00257031,0.0150625,0.00224219,-0.770469
-9.542000e-01,-0.00435156,-0.0255781,0.00104688,0.140313
-9.540000e-01,-0.00928906,-0.0576094,0.000273438,1.01359
-9.538000e-01,-0.0109219,-0.0655859,0.00021875,1.51531
-9.536000e-01,-0.00752344,-0.0481328,0.00025,1.43734
-9.534000e-01,-0.000890625,-0.0110469,0.000921875,0.813906
-9.532000e-01,0.00567969,0.0267422,0.00189062,-0.101094
-9.530000e-01,0.0101172,0.0558828,0.00294531,-0.973125
-9.528000e-01,0.0110156,0.0630938,0.00333594,-1.46797
-9.526000e-01,0.00796875,0.0507266,0.00363281,-1.39234
-9.524000e-01,0.000578125,0.015125,0.00335156,-0.767188
-9.522000e-01,-0.00598438,-0.0265625,0.002625,0.142813
-9.520000e-01,-0.0109453,-0.0594922,0.00139844,1.01609
-9.518000e-01,-0.0129297,-0.0685469,0.000859375,1.51531
-9.516000e-01,-0.0091875,-0.0503672,0.000992188,1.43969
-9.514000e-01,-0.00267188,-0.0115391,0.00239844,0.813594
-9.512000e-01,0.00394531,0.0273203,0.00365625,-0.101406
-9.510000e-01,0.0083125,0.0561719,0.00464844,-0.975
-9.508000e-01,0.0103906,0.0627188,0.00420313,-1.46969
-9.506000e-01,0.00902344,0.0495469,0.00321094,-1.39094
-9.504000e-01,0.00264063,0.0152422,0.00191406,-0.764531
-9.502000e-01,-0.00436719,-0.0252578,0.00090625,0.144687
-9.500000e-01,-0.00928125,-0.0574453,0.000164063,1.01562
-9.498000e-01,-0.0112578,-0.0654062,-0.000117187,1.51656
-9.496000e-01,-0.00734375,-0.0482812,0.000304687,1.43781
-9.494000e-01,-0.00103125,-0.0112891,0.000890625,0.81375
-9.492000e-01,0.005625,0.0263984,0.00182031,-0.10125
-9.490000e-01,0.0103203,0.0558203,0.00254688,-0.97375
-9.488000e-01,0.0110078,0.0630156,0.003,-1.46969
-9.486000e-01,0.00808594,0.0507109,0.00373438,-1.39266
-9.484000e-01,0.000710937,0.0149922,0.00396875,-0.767031
-9.482000e-01,-0.00599219,-0.0264844,0.00292969,0.141719
-9.480000e-01,-0.0108438,-0.0591484,0.0020625,1.01484
-9.478000e-01,-0.0125391,-0.06775,0.001375,1.51562
-9.476000e-01,-0.00942969,-0.0496641,0.00161719,1.43813
-9.474000e-01,-0.00257813,-0.0109922,0.00291406,0.8125
-9.472000e-01,0.0039375,0.0279219,0.00450781,-0.102344
-9.470000e-01,0.00864063,0.0568594,0.00495313,-0.973281
-9.468000e-01,0.0102422,0.0632969,0.00447656,-1.46891
-9.466000e-01,0.00896094,0.0502734,0.00350781,-1.39094
-9.464000e-01,0.00246094,0.0152891,0.00264063,-0.764844
-9.462000e-01,-0.00414844,-0.0252266,0.00150781,0.141875
-9.460000e-01,-0.0093125,-0.0573672,0.000445313,1.01453
-9.458000e-01,-0.0108516,-0.0652812,0.000242187,1.51422
-9.456000e-01,-0.00785156,-0.0477031,0.00040625,1.43656
-9.454000e-01,-0.00119531,-0.0106641,0.00136719,0.811875
-9.452000e-01,0.00553906,0.0272734,0.00189062,-0.102188
-9.450000e-01,0.0102891,0.0561172,0.00309375,-0.973125
-9.448000e-01,0.0109453,0.0636562,0.00430469,-1.46891
-9.446000e-01,0.007875,0.0513047,0.00463281,-1.39156
-9.444000e-01,0.000929688,0.0151328,0.00435938,-0.765781
-9.442000e-01,-0.00561719,-0.0260703,0.00363281,0.14375
-9.440000e-01,-0.0102422,-0.0589219,0.00260156,1.01828
-9.438000e-01,-0.0126641,-0.0681953,0.00154688,1.51656
-9.436000e-01,-0.00914844,-0.0499609,0.0018125,1.43719
-9.434000e-01,-0.00242187,-0.0109531,0.00334375,0.814063
-9.432000e-01,0.0039375,0.0279531,0.00464062,-0.09875
-9.430000e-01,0.00864844,0.0567031,0.00523438,-0.972969
-9.428000e-01,0.010375,0.0634453,0.00457031,-1.46875
-9.426000e-01,0.0090625,0.0498594,0.00351563,-1.39047
-9.424000e-01,0.00247656,0.0154062,0.0024375,-0.765625
-9.422000e-01,-0.004125,-0.0250859,0.00132813,0.142969
-9.420000e-01,-0.00899219,-0.0570391,0.000453125,1.01641
-9.418000e-01,-0.0113125,-0.0655,0.000203125,1.51594
-9.416000e-01,-0.00764844,-0.0479766,0.000492188,1.43766
-9.414000e-01,-0.00102344,-0.0108984,0.00132813,0.813125
-9.412000e-01,0.00589063,0.0269766,0.00223438,-0.102344
-9.410000e-01,0.0101797,0.0560859,0.00324219,-0.974531
-9.408000e-01,0.0112656,0.0637422,0.00375781,-1.47
-9.406000e-01,0.00815625,0.0512266,0.00409375,-1.39156
-9.404000e-01,0.000929688,0.0154687,0.00435156,-0.765
-9.402000e-01,-0.005875,-0.026,0.00325781,0.145156
-9.400000e-01,-0.0105703,-0.0588672,0.00192187,1.01734
-9.398000e-01,-0.0122266,-0.0675156,0.00153906,1.51516
-9.396000e-01,-0.009125,-0.0494922,0.00171094,1.43609
-9.394000e-01,-0.0025,-0.0107188,0.00290625,0.81375
-9.392000e-01,0.00416406,0.0279688,0.00460156,-0.101875
-9.390000e-01,0.00855469,0.0567734,0.00511719,-0.97375
-9.388000e-01,0.0103906,0.0633125,0.00460937,-1.46813
-9.386000e-01,0.008875,0.0502266,0.00359375,-1.39125
-9.384000e-01,0.00239844,0.0154844,0.00238281,-0.766406
-9.382000e-01,-0.00438281,-0.0248984,0.00142969,0.142656
-9.380000e-01,-0.00926562,-0.057,0.000671875,1.01453
-9.378000e-01,-0.0112031,-0.0648984,0.000289062,1.51438
-9.376000e-01,-0.00775,-0.0473203,0.000625,1.43656
-9.374000e-01,-0.0010625,-0.0106641,0.00123438,0.811094
-9.372000e-01,0.00564844,0.0272344,0.00210156,-0.10125
-9.370000e-01,0.0100703,0.0562891,0.00313281,-0.974688
-9.368000e-01,0.0108594,0.0635859,0.00410938,-1.46906
-9.366000e-01,0.00814063,0.0512813,0.00448438,-1.39172
-9.364000e-01,0.00090625,0.0152109,0.00419531,-0.766406
-9.362000e-01,-0.00592188,-0.0260234,0.0033125,0.1425
-9.360000e-01,-0.0108516,-0.0587422,0.0023125,1.01609
-9.358000e-01,-0.0129297,-0.0679297,0.00186719,1.51594
-9.356000e-01,-0.00935156,-0.0497422,0.00179688,1.43813
-9.354000e-01,-0.00260156,-0.0106406,0.00303906,0.814375
-9.352000e-01,0.00385156,0.02775,0.00398438,-0.100156
-9.350000e-01,0.00809375,0.0566094,0.00495313,-0.973125
-9.348000e-01,0.0101016,0.0632031,0.00475781,-1.46828
-9.346000e-01,0.00916406,0.0504766,0.0035625,-1.38984
-9.344000e-01,0.00251563,0.0155078,0.00254688,-0.764219
-9.342000e-01,-0.00423438,-0.0250156,0.00116406,0.144375
-9.340000e-01,-0.00921094,-0.0572578,0.000367188,1.01828
-9.338000e-01,-0.0109141,-0.0655625,0,1.51672
-9.336000e-01,-0.00772656,-0.0476328,0.000195313,1.4375
-9.334000e-01,-0.00138281,-0.010625,0.00132031,0.815469
-9.332000e-01,0.00553125,0.0273828,0.00196875,-0.0995313
-9.330000e-01,0.0095625,0.0563828,0.00321094,-0.972812
-9.328000e-01,0.0109141,0.0635781,0.00383594,-1.46844
-9.326000e-01,0.00783594,0.0511875,0.004375,-1.39031
-9.324000e-01,0.000671875,0.0149063,0.00435156,-0.764219
-9.322000e-01,-0.00610156,-0.0261953,0.00301563,0.145
-9.320000e-01,-0.0108984,-0.0588906,0.00203125,1.02094
-9.318000e-01,-0.0127813,-0.0675234,0.0013125,1.51672
-9.316000e-01,-0.00947656,-0.0496953,0.0018125,1.43875
-9.314000e-01,-0.00271875,-0.0108047,0.00290625,0.81375
-9.312000e-01,0.00385156,0.0279297,0.00398438,-0.101094
-9.310000e-01,0.00836719,0.0565547,0.00494531,-0.975
-9.308000e-01,0.0102969,0.0631719,0.00453125,-1.46906
-9.306000e-01,0.0091875,0.0501094,0.00345313,-1.39203
-9.304000e-01,0.00242187,0.0154609,0.00276562,-0.765469
-9.302000e-01,-0.00430469,-0.0251328,0.0015625,0.144219
-9.300000e-01,-0.00910156,-0.057125,0.000554688,1.01687
-9.298000e-01,-0.0108438,-0.0653828,0.0003125,1.51531
-9.296000e-01,-0.00778125,-0.0481328,0.000414062,1.43656
-9.294000e-01,-0.00122656,-0.0110547,0.00110156,0.813281
-9.292000e-01,0.00542188,0.0268359,0.002125,-0.103438
