1st_ToH2020/Matlab/Acc3.21/700.csv

Model,MDO4024C
Firmware Version,1.02

Waveform Type,ANALOG,,,
Point Format,Y,,,
Horizontal Units,s,,,
Horizontal Scale,0.2,,,
Horizontal Delay,0,,,
Sample Interval,0.0002,,,
Record Length,10000,,,
Gating,0.0% to 100.0%,,,
Probe Attenuation,10,10,10,10
Vertical Units,V,V,V,V
Vertical Offset,0,0,0,0
Vertical Scale,0.05,0.05,0.05,1
Vertical Position,0,0,0,0
,,,,
,,,,
,,,,
Label,,,,
TIME,CH1,CH2,CH3,CH4
-1.000000e+00,-0.00249219,-0.0159375,0.00207813,0.494688
-9.998000e-01,-0.0063125,-0.03625,0.00139062,1.49297
-9.996000e-01,-0.00596875,-0.0292188,0.001375,1.41672
-9.994000e-01,-0.000929688,-0.000742188,0.00202344,0.325625
-9.992000e-01,0.00316406,0.0275781,0.00282031,-0.9725
-9.990000e-01,0.00434375,0.0357578,0.00289844,-1.56297
-9.988000e-01,0.0026875,0.0225859,0.00304688,-0.991094
-9.986000e-01,-0.00219531,-0.0117188,0.00220313,0.303125
-9.984000e-01,-0.0063125,-0.0352266,0.00115625,1.405
-9.982000e-01,-0.00625781,-0.0315156,0.00123438,1.50031
-9.980000e-01,-0.00178125,-0.00592969,0.00177344,0.515938
-9.978000e-01,0.00236719,0.0248828,0.00278906,-0.809063
-9.976000e-01,0.00435938,0.0366797,0.0035625,-1.54859
-9.974000e-01,0.00375781,0.0258125,0.0036875,-1.13609
-9.972000e-01,-0.0016875,-0.00682031,0.00280469,0.1075
-9.970000e-01,-0.00603906,-0.0331875,0.00188281,1.29625
-9.968000e-01,-0.00603125,-0.0335312,0.00174219,1.56203
-9.966000e-01,-0.00222656,-0.0109688,0.00175781,0.696875
-9.964000e-01,0.00167969,0.0214219,0.00292187,-0.6325
-9.962000e-01,0.00469531,0.0362969,0.00347656,-1.50969
-9.960000e-01,0.0043125,0.0285078,0.00378906,-1.26344
-9.958000e-01,-0.00114844,-0.001375,0.00284375,-0.086875
-9.956000e-01,-0.00552344,-0.0306875,0.00192969,1.16656
-9.954000e-01,-0.00623438,-0.0350234,0.00120312,1.59875
-9.952000e-01,-0.0033125,-0.0156719,0.001375,0.874219
-9.950000e-01,0.000640625,0.0175859,0.00239062,-0.448906
-9.948000e-01,0.00466406,0.0357734,0.00308594,-1.44469
-9.946000e-01,0.00442969,0.0306406,0.00335937,-1.36734
-9.944000e-01,-0.00053125,0.00454687,0.00279687,-0.279531
-9.942000e-01,-0.00475,-0.0273594,0.0016875,1.01906
-9.940000e-01,-0.00615625,-0.0362188,0.00124219,1.61031
-9.938000e-01,-0.00411719,-0.0194141,0.00122656,1.03609
-9.936000e-01,0,0.0136562,0.00216406,-0.257656
-9.934000e-01,0.00409375,0.0347187,0.00288281,-1.35875
-9.932000e-01,0.004125,0.03225,0.00302344,-1.4525
-9.930000e-01,-0.000132813,0.00954687,0.00289844,-0.469062
-9.928000e-01,-0.00410938,-0.0240078,0.00151563,0.855938
-9.926000e-01,-0.00678125,-0.0372813,0.00126563,1.59688
-9.924000e-01,-0.00535156,-0.0235234,0.00116406,1.18172
-9.922000e-01,-0.000296875,0.00944531,0.00176563,-0.0629688
-9.920000e-01,0.00416406,0.032875,0.00289062,-1.24703
-9.918000e-01,0.00442969,0.0337656,0.00269531,-1.51078
-9.916000e-01,0.000867188,0.0146406,0.0028125,-0.65
-9.914000e-01,-0.00333594,-0.0202266,0.00146875,0.680937
-9.912000e-01,-0.00679687,-0.0371172,0.00084375,1.55766
-9.910000e-01,-0.00580469,-0.0266562,0.00104688,1.31078
-9.908000e-01,-0.000640625,0.00448438,0.00180469,0.131719
-9.906000e-01,0.0036875,0.0303125,0.00247656,-1.11969
-9.904000e-01,0.00415625,0.0351328,0.00271094,-1.54859
-9.902000e-01,0.00154688,0.0188516,0.00289844,-0.82625
-9.900000e-01,-0.00272656,-0.0157344,0.00160156,0.494844
-9.898000e-01,-0.00649219,-0.0362813,0.000695312,1.49344
-9.896000e-01,-0.006375,-0.0295547,0.000828125,1.41656
-9.894000e-01,-0.00166406,-0.000703125,0.001375,0.325937
-9.892000e-01,0.00271875,0.0278359,0.00215625,-0.972031
-9.890000e-01,0.003875,0.0358984,0.00236719,-1.56203
-9.888000e-01,0.00259375,0.0229062,0.0028125,-0.9875
-9.886000e-01,-0.00242187,-0.0117578,0.00189844,0.303594
-9.884000e-01,-0.00658594,-0.0352031,0.000914063,1.40594
-9.882000e-01,-0.00630469,-0.0314453,0.0010625,1.50016
-9.880000e-01,-0.00201563,-0.00566406,0.00138281,0.515313
-9.878000e-01,0.00214063,0.0249219,0.0024375,-0.807656
-9.876000e-01,0.00430469,0.0366406,0.00302344,-1.54594
-9.874000e-01,0.00346875,0.0262812,0.00308594,-1.13344
-9.872000e-01,-0.00167187,-0.00664062,0.00207813,0.110156
-9.870000e-01,-0.00604688,-0.0330234,0.000945312,1.29719
-9.868000e-01,-0.00639063,-0.0332891,0.000734375,1.56094
-9.866000e-01,-0.00230469,-0.0107422,0.000992188,0.697031
-9.864000e-01,0.0014375,0.0212422,0.00222656,-0.632031
-9.862000e-01,0.00461719,0.0361875,0.00283594,-1.50828
-9.860000e-01,0.00415625,0.0283594,0.00303125,-1.26078
-9.858000e-01,-0.00119531,-0.00160156,0.00223438,-0.085
-9.856000e-01,-0.00582812,-0.0306406,0.00120312,1.16609
-9.854000e-01,-0.00607813,-0.0352891,0.00107813,1.59937
-9.852000e-01,-0.00320313,-0.0153984,0.00115625,0.874844
-9.850000e-01,0.000890625,0.0173906,0.00228125,-0.448281
-9.848000e-01,0.0046875,0.0353047,0.00298438,-1.44625
-9.846000e-01,0.00460937,0.0302969,0.00321094,-1.36953
-9.844000e-01,-0.000554688,0.00426563,0.00232031,-0.281094
-9.842000e-01,-0.00510938,-0.0277578,0.00142187,1.01875
-9.840000e-01,-0.00627344,-0.0364922,0.00103906,1.61094
-9.838000e-01,-0.0045,-0.0197656,0.000953125,1.03609
-9.836000e-01,0.00021875,0.0135859,0.00216406,-0.258281
-9.834000e-01,0.00434375,0.0343203,0.00285937,-1.35797
-9.832000e-01,0.00438281,0.0323047,0.00294531,-1.45172
-9.830000e-01,-7.8125e-06,0.00971094,0.0028125,-0.467188
-9.828000e-01,-0.00424219,-0.0243047,0.00150781,0.856563
-9.826000e-01,-0.00632031,-0.0371172,0.001125,1.59594
-9.824000e-01,-0.00494531,-0.0233203,0.00110156,1.18219
-9.822000e-01,-0.00025,0.00919531,0.00196875,-0.065
-9.820000e-01,0.00419531,0.032875,0.00311719,-1.24906
-9.818000e-01,0.00430469,0.0338281,0.00316406,-1.51156
-9.816000e-01,0.00075,0.0141016,0.00300781,-0.651719
-9.814000e-01,-0.00307813,-0.0202969,0.00167969,0.678906
-9.812000e-01,-0.00633594,-0.0369766,0.00117187,1.55563
-9.810000e-01,-0.00570312,-0.0266562,0.00102344,1.30859
-9.808000e-01,-0.000820312,0.00425781,0.00185938,0.130312
-9.806000e-01,0.004,0.0302812,0.00276562,-1.11953
-9.804000e-01,0.00420313,0.0346484,0.00310156,-1.54906
-9.802000e-01,0.00178906,0.0185859,0.00321094,-0.826094
-9.800000e-01,-0.00235937,-0.0161016,0.00208594,0.495156
-9.798000e-01,-0.00628125,-0.0365078,0.00107813,1.49297
-9.796000e-01,-0.00566406,-0.0294609,0.00110156,1.41578
-9.794000e-01,-0.00105469,-0.0010625,0.00189844,0.325781
-9.792000e-01,0.00309375,0.0275391,0.00250781,-0.97375
-9.790000e-01,0.00434375,0.0358984,0.00286719,-1.56062
-9.788000e-01,0.0028125,0.0227266,0.00299219,-0.9875
-9.786000e-01,-0.00203906,-0.0116797,0.002375,0.307031
-9.784000e-01,-0.0064375,-0.0350937,0.00117187,1.40766
-9.782000e-01,-0.00626563,-0.0316016,0.001375,1.50172
-9.780000e-01,-0.00186719,-0.00608594,0.00177344,0.513594
-9.778000e-01,0.00224219,0.0247422,0.003125,-0.808125
-9.776000e-01,0.00447656,0.0362969,0.0033125,-1.54563
-9.774000e-01,0.00371875,0.0260547,0.0034375,-1.13297
-9.772000e-01,-0.00145312,-0.00672656,0.00280469,0.110469
-9.770000e-01,-0.00613281,-0.0331797,0.00149219,1.29922
-9.768000e-01,-0.00595313,-0.0333203,0.00164844,1.56297
-9.766000e-01,-0.00233594,-0.0108906,0.00184375,0.697656
-9.764000e-01,0.00128906,0.0216406,0.00285937,-0.632656
-9.762000e-01,0.00434375,0.0368594,0.00376562,-1.50734
-9.760000e-01,0.00408594,0.0288984,0.00385937,-1.25953
-9.758000e-01,-0.00115625,-0.000804688,0.00271875,-0.0842187
-9.756000e-01,-0.00570312,-0.0303125,0.00208594,1.16797
-9.754000e-01,-0.00603125,-0.0351016,0.00134375,1.59781
-9.752000e-01,-0.00308594,-0.0154922,0.00153125,0.874688
-9.750000e-01,0.000976562,0.0177891,0.00252344,-0.449688
-9.748000e-01,0.00466406,0.0359297,0.00328906,-1.44453
-9.746000e-01,0.00466406,0.0304922,0.00321875,-1.36703
-9.744000e-01,-0.00034375,0.00440625,0.00279687,-0.277031
-9.742000e-01,-0.00476562,-0.0279766,0.00186719,1.02109
-9.740000e-01,-0.0064375,-0.0366406,0.00133594,1.61109
-9.738000e-01,-0.00446094,-0.0195703,0.00153906,1.03672
-9.736000e-01,0.000195313,0.0135,0.00216406,-0.259219
-9.734000e-01,0.00445313,0.0345625,0.00334375,-1.35828
-9.732000e-01,0.00452344,0.0322422,0.00355469,-1.4525
-9.730000e-01,3.90625e-05,0.00955469,0.00314063,-0.466406
-9.728000e-01,-0.00397656,-0.0240859,0.0019375,0.8575
-9.726000e-01,-0.00645313,-0.0368594,0.00145312,1.59891
-9.724000e-01,-0.00521094,-0.0234375,0.00139844,1.18172
-9.722000e-01,-0.000515625,0.00936719,0.0019375,-0.065625
-9.720000e-01,0.00415625,0.0327344,0.00289062,-1.24875
-9.718000e-01,0.00439063,0.0337266,0.00303906,-1.51047
-9.716000e-01,0.000765625,0.0141641,0.00289062,-0.647969
-9.714000e-01,-0.00321094,-0.0202109,0.00150781,0.681094
-9.712000e-01,-0.00635156,-0.0370391,0.00121875,1.55734
-9.710000e-01,-0.00575781,-0.0268828,0.00120312,1.30828
-9.708000e-01,-0.000625,0.00440625,0.00202344,0.130938
-9.706000e-01,0.00364844,0.0304062,0.00304688,-1.12047
-9.704000e-01,0.00413281,0.0347344,0.00345313,-1.54844
-9.702000e-01,0.0015,0.0183047,0.00320313,-0.823281
-9.700000e-01,-0.00303125,-0.01625,0.00213281,0.496563
-9.698000e-01,-0.00692188,-0.0367891,0.00115625,1.49453
-9.696000e-01,-0.006125,-0.0292422,0.000945312,1.41625
-9.694000e-01,-0.00160938,-0.001125,0.00152344,0.323437
-9.692000e-01,0.00292187,0.0272109,0.00265625,-0.972656
-9.690000e-01,0.00416406,0.0355313,0.00264844,-1.55984
-9.688000e-01,0.00283594,0.0224453,0.00258594,-0.985
-9.686000e-01,-0.00216406,-0.0121797,0.00145312,0.306406
-9.684000e-01,-0.00644531,-0.0356484,0.000835937,1.40688
-9.682000e-01,-0.00628906,-0.0318594,0.000570312,1.50141
-9.680000e-01,-0.00194531,-0.00626563,0.00121094,0.514531
-9.678000e-01,0.00194531,0.0241484,0.00201563,-0.809219
-9.676000e-01,0.00420313,0.0361641,0.00275781,-1.54469
-9.674000e-01,0.00335937,0.0257422,0.00269531,-1.13047
-9.672000e-01,-0.00186719,-0.00717188,0.00192187,0.114375
-9.670000e-01,-0.00664844,-0.0336484,0.000820312,1.30094
-9.668000e-01,-0.006375,-0.0336797,0.000804688,1.56375
-9.666000e-01,-0.00271094,-0.0113594,0.000828125,0.697187
-9.664000e-01,0.00116406,0.0209063,0.00209375,-0.6325
-9.662000e-01,0.00417188,0.0361406,0.00273438,-1.50672
-9.660000e-01,0.00391406,0.0282891,0.00276562,-1.25828
-9.658000e-01,-0.00110156,-0.00167969,0.00202344,-0.0821875
-9.656000e-01,-0.00603906,-0.0308203,0.0013125,1.17203
-9.654000e-01,-0.00614844,-0.0352891,0.000882813,1.60187
-9.652000e-01,-0.00326562,-0.0154609,0.000875,0.874688
-9.650000e-01,0.000703125,0.0173906,0.00202344,-0.449375
-9.648000e-01,0.00442188,0.0351953,0.00269531,-1.44406
-9.646000e-01,0.00467187,0.0300859,0.00294531,-1.36531
-9.644000e-01,-0.000359375,0.004,0.00261719,-0.276719
-9.642000e-01,-0.00513281,-0.0279219,0.00152344,1.02266
-9.640000e-01,-0.00646875,-0.0367031,0.000914063,1.61141
-9.638000e-01,-0.00428906,-0.01975,0.00103906,1.03422
-9.636000e-01,0.000382813,0.0132812,0.00204688,-0.260937
-9.634000e-01,0.00454687,0.03425,0.00295313,-1.35984
-9.632000e-01,0.00448438,0.0321484,0.00273438,-1.45047
-9.630000e-01,7.8125e-06,0.00923437,0.00238281,-0.465469
-9.628000e-01,-0.00422656,-0.0244766,0.00121094,0.859063
-9.626000e-01,-0.00620313,-0.0374844,0.000953125,1.59859
-9.624000e-01,-0.004875,-0.0236484,0.00129688,1.18312
-9.622000e-01,3.125e-05,0.00904687,0.00183594,-0.0629688
-9.620000e-01,0.00458594,0.03275,0.00294531,-1.24672
-9.618000e-01,0.00466406,0.0334922,0.00297656,-1.50938
-9.616000e-01,0.00102344,0.0141406,0.00328906,-0.647188
-9.614000e-01,-0.0030625,-0.0204922,0.00177344,0.682031
-9.612000e-01,-0.00632813,-0.0371797,0.00121875,1.5575
-9.610000e-01,-0.00550781,-0.0266875,0.00140625,1.31078
-9.608000e-01,-0.000289062,0.00466406,0.00191406,0.132188
-9.606000e-01,0.004125,0.0301797,0.00277344,-1.12
-9.604000e-01,0.00477344,0.0351875,0.00309375,-1.54609
-9.602000e-01,0.00217188,0.0187187,0.00303906,-0.8225
-9.600000e-01,-0.00240625,-0.0158828,0.00195312,0.49875
-9.598000e-01,-0.00617188,-0.0365078,0.00144531,1.49687
-9.596000e-01,-0.00607813,-0.0293203,0.00132813,1.41797
-9.594000e-01,-0.001125,-0.000820312,0.002,0.326094
-9.592000e-01,0.00288281,0.0278828,0.003125,-0.97125
-9.590000e-01,0.004125,0.0359609,0.00378125,-1.55656
-9.588000e-01,0.00290625,0.0229766,0.00365625,-0.983594
-9.586000e-01,-0.00219531,-0.0116484,0.00276562,0.31
-9.584000e-01,-0.00628906,-0.035125,0.00129688,1.40969
-9.582000e-01,-0.0063125,-0.0316328,0.00145312,1.50172
-9.580000e-01,-0.00182031,-0.00586719,0.00210156,0.516719
-9.578000e-01,0.00222656,0.0247969,0.00285937,-0.808281
-9.576000e-01,0.00435938,0.0366016,0.00347656,-1.54438
-9.574000e-01,0.00363281,0.0261484,0.00340625,-1.12875
-9.572000e-01,-0.00155469,-0.0069375,0.00269531,0.116094
-9.570000e-01,-0.006125,-0.0330703,0.00153125,1.30281
-9.568000e-01,-0.00595313,-0.0334844,0.00139844,1.56344
-9.566000e-01,-0.002375,-0.0106641,0.00159375,0.697969
-9.564000e-01,0.00157031,0.0216172,0.00276562,-0.632656
-9.562000e-01,0.00447656,0.0364531,0.00332812,-1.50594
-9.560000e-01,0.00435156,0.0285938,0.00344531,-1.25547
-9.558000e-01,-0.000742188,-0.00149219,0.00250781,-0.0807812
-9.556000e-01,-0.00557812,-0.0307891,0.00160156,1.17234
-9.554000e-01,-0.00597656,-0.0353203,0.00114844,1.60062
-9.552000e-01,-0.00307813,-0.0156328,0.00110938,0.872188
-9.550000e-01,0.0008125,0.0177969,0.00234375,-0.448594
-9.548000e-01,0.00475,0.0358047,0.00321094,-1.44375
-9.546000e-01,0.00480469,0.0308203,0.00324219,-1.3625
-9.544000e-01,-0.000234375,0.0041875,0.00242187,-0.274062
-9.542000e-01,-0.00461719,-0.0277891,0.00158594,1.02328
-9.540000e-01,-0.00598438,-0.0364609,0.00108594,1.61187
-9.538000e-01,-0.00385937,-0.0195781,0.00121875,1.03516
-9.536000e-01,0.000390625,0.0133906,0.00215625,-0.259219
-9.534000e-01,0.00448438,0.0345781,0.00323438,-1.35828
-9.532000e-01,0.00463281,0.0322187,0.00346094,-1.44922
-9.530000e-01,1.5625e-05,0.00945312,0.00310938,-0.464375
-9.528000e-01,-0.004,-0.0244531,0.00145312,0.859531
-9.526000e-01,-0.00632031,-0.0371406,0.00128125,1.59625
-9.524000e-01,-0.00510156,-0.0234453,0.0015625,1.18016
-9.522000e-01,-0.000421875,0.00924219,0.002,-0.06625
-9.520000e-01,0.0040625,0.0326953,0.00297656,-1.24938
-9.518000e-01,0.00425781,0.0336328,0.003125,-1.50906
-9.516000e-01,0.000640625,0.0139922,0.00289062,-0.64625
-9.514000e-01,-0.00317188,-0.0203047,0.00126563,0.684063
-9.512000e-01,-0.0065,-0.0370156,0.00114062,1.55953
-9.510000e-01,-0.00578125,-0.0268359,0.000875,1.30953
-9.508000e-01,-0.000765625,0.00441406,0.00174219,0.130156
-9.506000e-01,0.00353906,0.0301172,0.00276562,-1.11859
-9.504000e-01,0.00428125,0.0348203,0.0029375,-1.54563
-9.502000e-01,0.00157813,0.0185547,0.00320313,-0.820469
-9.500000e-01,-0.0026875,-0.0160547,0.00203125,0.499219
-9.498000e-01,-0.00661719,-0.0366328,0.00139844,1.49687
-9.496000e-01,-0.00610156,-0.029375,0.00136719,1.41656
-9.494000e-01,-0.00125,-0.000679688,0.001625,0.324688
-9.492000e-01,0.00290625,0.0275859,0.00252344,-0.970781
-9.490000e-01,0.00425781,0.0359844,0.00298438,-1.55766
-9.488000e-01,0.00257031,0.0226328,0.0030625,-0.982969
-9.486000e-01,-0.00234375,-0.0117656,0.002125,0.31125
-9.484000e-01,-0.00642188,-0.0352891,0.000929688,1.41031
-9.482000e-01,-0.00624219,-0.0313047,0.00110938,1.50078
-9.480000e-01,-0.00219531,-0.00607031,0.00149219,0.5125
-9.478000e-01,0.00189844,0.0246484,0.0025,-0.810469
-9.476000e-01,0.00423438,0.0363672,0.00288281,-1.54516
-9.474000e-01,0.00314844,0.0259141,0.00307813,-1.12938
-9.472000e-01,-0.00178125,-0.00732031,0.00209375,0.114375
-9.470000e-01,-0.00613281,-0.0337422,0.000984375,1.30031
-9.468000e-01,-0.00616406,-0.0336016,0.00101563,1.56219
-9.466000e-01,-0.00260156,-0.0114141,0.00149219,0.696719
-9.464000e-01,0.00134375,0.0211406,0.00264063,-0.633906
-9.462000e-01,0.00432813,0.0360547,0.0033125,-1.50516
-9.460000e-01,0.00404688,0.0283828,0.0034375,-1.25531
-9.458000e-01,-0.001375,-0.00179688,0.0025,-0.0798438
-9.456000e-01,-0.00569531,-0.0311094,0.00171094,1.16953
-9.454000e-01,-0.00628125,-0.0355469,0.00154688,1.59844
-9.452000e-01,-0.00347656,-0.0155,0.00163281,0.872031
-9.450000e-01,0.0005625,0.0175547,0.00239844,-0.452188
-9.448000e-01,0.00442969,0.0355547,0.00296875,-1.44703
-9.446000e-01,0.00432813,0.0304219,0.00311719,-1.36469
-9.444000e-01,-0.000695312,0.00425781,0.0026875,-0.275625
-9.442000e-01,-0.00523438,-0.0280156,0.00159375,1.02219
-9.440000e-01,-0.00630469,-0.0366328,0.00114844,1.61125
-9.438000e-01,-0.0045625,-0.0197891,0.00140625,1.03313
-9.436000e-01,0.000109375,0.0134219,0.00230469,-0.260625
-9.434000e-01,0.00432031,0.0342969,0.00317188,-1.35781
-9.432000e-01,0.00439844,0.0321406,0.00321875,-1.44781
-9.430000e-01,-9.375e-05,0.0093125,0.00328125,-0.463906
-9.428000e-01,-0.00410938,-0.0244141,0.00174219,0.85875
-9.426000e-01,-0.00624219,-0.0372969,0.00145312,1.59547
-9.424000e-01,-0.00519531,-0.0232734,0.00158594,1.17906
-9.422000e-01,-0.00034375,0.00939062,0.00234375,-0.0678125
-9.420000e-01,0.00417188,0.0327031,0.00345313,-1.25063
-9.418000e-01,0.00439844,0.0333906,0.00333594,-1.51109
-9.416000e-01,0.000882813,0.0140703,0.003375,-0.647656
-9.414000e-01,-0.00321875,-0.0205391,0.00180469,0.683281
-9.412000e-01,-0.00609375,-0.0372578,0.00140625,1.55656
-9.410000e-01,-0.00536719,-0.0267891,0.0013125,1.30719
-9.408000e-01,-0.000359375,0.00434375,0.0021875,0.128438
-9.406000e-01,0.00391406,0.0301719,0.00311719,-1.12156
-9.404000e-01,0.00436719,0.0346094,0.00353125,-1.54797
-9.402000e-01,0.00208594,0.0183047,0.00355469,-0.820312
-9.400000e-01,-0.00246094,-0.0164453,0.00227344,0.498281
-9.398000e-01,-0.00633594,-0.0368438,0.00134375,1.49359
-9.396000e-01,-0.00588281,-0.0296484,0.00135938,1.41547
-9.394000e-01,-0.00128125,-0.000953125,0.00225,0.323281
-9.392000e-01,0.00303906,0.0274141,0.00300781,-0.974063
-9.390000e-01,0.00438281,0.0359531,0.00314844,-1.55906
-9.388000e-01,0.00267969,0.0224297,0.00314844,-0.983906
-9.386000e-01,-0.00205469,-0.0121875,0.00232812,0.309063
-9.384000e-01,-0.00626563,-0.0355625,0.00107031,1.40734
-9.382000e-01,-0.00575781,-0.03175,0.00150781,1.49781
-9.380000e-01,-0.00134375,-0.00603906,0.00174219,0.510313
-9.378000e-01,0.00269531,0.0248672,0.00284375,-0.81
-9.376000e-01,0.00467187,0.0367188,0.00333594,-1.54438
-9.374000e-01,0.00389844,0.0262812,0.00353125,-1.12766
-9.372000e-01,-0.00133594,-0.00697656,0.00282031,0.115469
-9.370000e-01,-0.005875,-0.0331562,0.00178125,1.29906
-9.368000e-01,-0.00586719,-0.0335234,0.001375,1.56141
-9.366000e-01,-0.00225,-0.0108906,0.00158594,0.695
-9.364000e-01,0.00124219,0.0211094,0.00271094,-0.634531
-9.362000e-01,0.00439844,0.0363438,0.00353125,-1.50562
-9.360000e-01,0.00438281,0.0284453,0.00336719,-1.25609
-9.358000e-01,-0.00102344,-0.00178125,0.00283594,-0.0790625
-9.356000e-01,-0.0054375,-0.031,0.00175781,1.17188
-9.354000e-01,-0.00605469,-0.0351953,0.00151563,1.60078
-9.352000e-01,-0.00332812,-0.0155781,0.00155469,0.870156
-9.350000e-01,0.000515625,0.0176172,0.00267188,-0.4525
-9.348000e-01,0.00450781,0.0359141,0.00369531,-1.44547
-9.346000e-01,0.00426563,0.0305859,0.00332812,-1.36344
-9.344000e-01,-0.000460938,0.0044375,0.00271094,-0.273438
-9.342000e-01,-0.00491406,-0.0279219,0.00182031,1.02516
-9.340000e-01,-0.00625,-0.0366406,0.00128906,1.61078
-9.338000e-01,-0.00428125,-0.0197422,0.00132813,1.03359
-9.336000e-01,-0.000109375,0.0135156,0.00222656,-0.261875
-9.334000e-01,0.00451562,0.0342969,0.00357031,-1.3575
-9.332000e-01,0.00424219,0.0321797,0.00328906,-1.44656
-9.330000e-01,-3.90625e-05,0.00917969,0.00315625,-0.462656
-9.328000e-01,-0.00383594,-0.0243516,0.00166406,0.861719
-9.326000e-01,-0.00639844,-0.0373125,0.00129688,1.5975
-9.324000e-01,-0.00507813,-0.0236953,0.00139844,1.17844
-9.322000e-01,-9.375e-05,0.00909375,0.00214844,-0.066875
-9.320000e-01,0.00414063,0.0326719,0.0031875,-1.25016
-9.318000e-01,0.00425781,0.0335781,0.00332031,-1.50859
-9.316000e-01,0.000578125,0.0141719,0.00315625,-0.645469
-9.314000e-01,-0.00325,-0.0203125,0.00191406,0.684375
-9.312000e-01,-0.00659375,-0.0372969,0.00124219,1.55859
-9.310000e-01,-0.00573437,-0.026625,0.0011875,1.30656
-9.308000e-01,-0.000789063,0.00448438,0.0016875,0.127188
-9.306000e-01,0.00358594,0.030375,0.00275781,-1.12172
-9.304000e-01,0.00402344,0.0350078,0.00289062,-1.54703
-9.302000e-01,0.00161719,0.018875,0.00319531,-0.822344
-9.300000e-01,-0.00279687,-0.0161172,0.00214844,0.500156
-9.298000e-01,-0.00663281,-0.0369531,0.00109375,1.49422
