python/acc_data/tek0009.csv

Model,MDO4024C
Firmware Version,1.02

Waveform Type,ANALOG,,,
Point Format,Y,,,
Horizontal Units,s,,,
Horizontal Scale,0.1,,,
Horizontal Delay,0,,,
Sample Interval,0.0001,,,
Record Length,10000,,,
Gating,0.0% to 100.0%,,,
Probe Attenuation,10,10,10,10
Vertical Units,V,V,V,V
Vertical Offset,0,0,0,0
Vertical Scale,0.5,0.5,0.5,1
Vertical Position,2.08,-0.1,-2.04,-2.96
,,,,
,,,,
,,,,
Label,,,,
TIME,CH1,CH2,CH3,CH4
-5.000000e-01,-0.0266406,-0.000703125,0.0396094,0.381875
-4.999000e-01,-0.0289844,0.00164062,0.0391406,0.37875
-4.998000e-01,-0.0258594,0.000859375,0.0389844,0.372031
-4.997000e-01,-0.02125,-0.003125,0.0383594,0.37
-4.996000e-01,-0.024375,-0.00304687,0.0386719,0.368281
-4.995000e-01,-0.0264844,0.000234375,0.0395313,0.365781
-4.994000e-01,-0.0254687,0,0.0389063,0.362969
-4.993000e-01,-0.0221094,-0.00101562,0.0390625,0.360937
-4.992000e-01,-0.0246094,-0.0025,0.0388281,0.357656
-4.991000e-01,-0.0260156,-0.000234375,0.0390625,0.354219
-4.990000e-01,-0.02625,0.00015625,0.039375,0.351094
-4.989000e-01,-0.0245313,-0.000703125,0.0396094,0.347969
-4.988000e-01,-0.023125,-0.0021875,0.0396875,0.345469
-4.987000e-01,-0.0246094,-0.00257813,0.0391406,0.342031
-4.986000e-01,-0.0260938,-0.00132812,0.0392187,0.339687
-4.985000e-01,-0.0266406,-0.0015625,0.0389063,0.335938
-4.984000e-01,-0.0264844,-0.00046875,0.0391406,0.331875
-4.983000e-01,-0.0272656,0.00078125,0.039375,0.329531
-4.982000e-01,-0.0255469,-0.00015625,0.0396875,0.326875
-4.981000e-01,-0.0225781,-0.0021875,0.039375,0.322656
-4.980000e-01,-0.0232031,-0.0025,0.0396094,0.319531
-4.979000e-01,-0.0265625,0.00015625,0.0395313,0.3175
-4.978000e-01,-0.0266406,0.0015625,0.0397656,0.31375
-4.977000e-01,-0.0234375,7.8125e-05,0.0398437,0.311094
-4.976000e-01,-0.0220312,-0.00125,0.0395313,0.308281
-4.975000e-01,-0.0241406,-0.001875,0.0389844,0.305
-4.974000e-01,-0.026875,-0.0003125,0.0383594,0.298281
-4.973000e-01,-0.0257813,0.000546875,0.0388281,0.295625
-4.972000e-01,-0.0254687,-0.00015625,0.0386719,0.292344
-4.971000e-01,-0.0251562,-0.00101562,0.0389844,0.286094
-4.970000e-01,-0.0248438,-0.000859375,0.039375,0.280625
-4.969000e-01,-0.0260156,-0.000390625,0.0391406,0.275781
-4.968000e-01,-0.0265625,0.000390625,0.0392969,0.271562
-4.967000e-01,-0.0271094,0.000546875,0.0392187,0.266875
-4.966000e-01,-0.0264062,-7.8125e-05,0.0396094,0.262031
-4.965000e-01,-0.0253125,-0.000859375,0.0391406,0.258594
-4.964000e-01,-0.0253125,-0.000390625,0.0394531,0.254219
-4.963000e-01,-0.0269531,0.000234375,0.0394531,0.249844
-4.962000e-01,-0.0258594,0.0009375,0.0397656,0.245625
-4.961000e-01,-0.0242187,0.000234375,0.0396094,0.240625
-4.960000e-01,-0.024375,-0.0009375,0.0396094,0.235
-4.959000e-01,-0.0254687,0.00046875,0.0401563,0.231719
-4.958000e-01,-0.028125,0.00078125,0.0394531,0.225469
-4.957000e-01,-0.0239063,0.000234375,0.04,0.223281
-4.956000e-01,-0.0238281,-0.00171875,0.039375,0.216562
-4.955000e-01,-0.0278906,0.000625,0.0398437,0.212969
-4.954000e-01,-0.0307812,0.00335938,0.0396094,0.209219
-4.953000e-01,-0.0257031,0.0021875,0.0404687,0.203906
-4.952000e-01,-0.0223438,-0.00171875,0.0403906,0.200937
-4.951000e-01,-0.0246875,-0.00046875,0.0405469,0.196094
-4.950000e-01,-0.0282031,0.00445313,0.0411719,0.189531
-4.949000e-01,-0.0265625,0.00523437,0.0416406,0.18375
-4.948000e-01,-0.0245313,0.00421875,0.0411719,0.178906
-4.947000e-01,-0.0259375,0.00320313,0.0408594,0.174531
-4.946000e-01,-0.0264062,0.0021875,0.0407031,0.170625
-4.945000e-01,-0.0251562,0.001875,0.0404687,0.16625
-4.944000e-01,-0.0252344,0.00140625,0.0403906,0.163594
-4.943000e-01,-0.0265625,0.00171875,0.0404687,0.1575
-4.942000e-01,-0.0284375,0.00257813,0.0396875,0.1525
-4.941000e-01,-0.0283594,0.00320313,0.0401563,0.147344
-4.940000e-01,-0.0282031,0.00367188,0.0404687,0.14375
-4.939000e-01,-0.0279688,0.00320313,0.0401563,0.140156
-4.938000e-01,-0.0271094,0.0028125,0.0401563,0.132344
-4.937000e-01,-0.0273438,0.00320313,0.04,0.127187
-4.936000e-01,-0.0285937,0.00359375,0.0405469,0.123125
-4.935000e-01,-0.028125,0.00367188,0.0404687,0.116406
-4.934000e-01,-0.0273438,0.003125,0.040625,0.112188
-4.933000e-01,-0.0280469,0.003125,0.0407031,0.107813
-4.932000e-01,-0.0297656,0.00421875,0.040625,0.104844
-4.931000e-01,-0.0298437,0.004375,0.0400781,0.0985938
-4.930000e-01,-0.02875,0.00382813,0.0401563,0.0945312
-4.929000e-01,-0.029375,0.00421875,0.0407031,0.08875
-4.928000e-01,-0.031875,0.00515625,0.0409375,0.0825
-4.927000e-01,-0.0292969,0.00484375,0.0407812,0.0804688
-4.926000e-01,-0.0275781,0.00289063,0.0402344,0.0765625
-4.925000e-01,-0.0273438,0.0028125,0.0401563,0.0720312
-4.924000e-01,-0.0291406,0.00335938,0.0400781,0.0667187
-4.923000e-01,-0.0290625,0.00460937,0.0404687,0.0620312
-4.922000e-01,-0.0279688,0.00492187,0.0401563,0.0592187
-4.921000e-01,-0.0282031,0.00539063,0.040625,0.0535938
-4.920000e-01,-0.0283594,0.00523437,0.0403906,0.0504687
-4.919000e-01,-0.0276562,0.00507813,0.0410938,0.0460937
-4.918000e-01,-0.0282813,0.005,0.0409375,0.0410937
-4.917000e-01,-0.0286719,0.00484375,0.0407812,0.0365625
-4.916000e-01,-0.0291406,0.005,0.0403906,0.0329687
-4.915000e-01,-0.0279688,0.00460937,0.0407031,0.0282813
-4.914000e-01,-0.0276562,0.00359375,0.0407031,0.0242187
-4.913000e-01,-0.0282031,0.00414063,0.0407031,0.0189063
-4.912000e-01,-0.0303125,0.005,0.0403906,0.0125
-4.911000e-01,-0.0286719,0.00523437,0.0407031,0.006875
-4.910000e-01,-0.0285156,0.00414063,0.0403906,0.0021875
-4.909000e-01,-0.029375,0.00492187,0.0409375,-0.00234375
-4.908000e-01,-0.0304688,0.0059375,0.0407031,-0.00890625
-4.907000e-01,-0.0260156,0.00640625,0.0413281,-0.0134375
-4.906000e-01,-0.024375,0.0046875,0.0409375,-0.0170313
-4.905000e-01,-0.0272656,0.00648438,0.0414844,-0.0207813
-4.904000e-01,-0.0309375,0.00929688,0.0416406,-0.0267188
-4.903000e-01,-0.0283594,0.00960938,0.0413281,-0.0326563
-4.902000e-01,-0.0252344,0.00609375,0.0414844,-0.0364063
-4.901000e-01,-0.0249219,0.00539063,0.0411719,-0.0409375
-4.900000e-01,-0.02875,0.0078125,0.0410156,-0.0439063
-4.899000e-01,-0.0285156,0.00945312,0.0410156,-0.0490625
-4.898000e-01,-0.0250781,0.00820312,0.04125,-0.0529688
-4.897000e-01,-0.0249219,0.00515625,0.0410938,-0.0579688
-4.896000e-01,-0.0270313,0.00742188,0.0414844,-0.0626563
-4.895000e-01,-0.0297656,0.00914062,0.0411719,-0.0690625
-4.894000e-01,-0.0296875,0.00875,0.0407031,-0.0739063
-4.893000e-01,-0.0279688,0.00757813,0.0410156,-0.078125
-4.892000e-01,-0.0288281,0.00671875,0.0410938,-0.0845312
-4.891000e-01,-0.0299219,0.00804688,0.04125,-0.0873438
-4.890000e-01,-0.0305469,0.00960938,0.0414844,-0.0920313
-4.889000e-01,-0.0303125,0.00828125,0.0411719,-0.0998438
-4.888000e-01,-0.0277344,0.00679688,0.0409375,-0.102656
-4.887000e-01,-0.0282031,0.00796875,0.0415625,-0.107031
-4.886000e-01,-0.0295313,0.00992188,0.0421875,-0.111563
-4.885000e-01,-0.0282031,0.0105469,0.0421875,-0.116406
-4.884000e-01,-0.0282031,0.00914062,0.0416406,-0.120781
-4.883000e-01,-0.0307031,0.00890625,0.0411719,-0.126719
-4.882000e-01,-0.033125,0.0101562,0.0407812,-0.132969
-4.881000e-01,-0.0317188,0.00953125,0.0410938,-0.1375
-4.880000e-01,-0.02875,0.00710938,0.0409375,-0.142969
-4.879000e-01,-0.0301563,0.0065625,0.0405469,-0.14625
-4.878000e-01,-0.0336719,0.00859375,0.0400781,-0.15125
-4.877000e-01,-0.0335938,0.0101562,0.0407812,-0.155625
-4.876000e-01,-0.0311719,0.00867188,0.0407812,-0.16
-4.875000e-01,-0.0316406,0.00765625,0.0405469,-0.1625
-4.874000e-01,-0.0332812,0.00929688,0.0402344,-0.169219
-4.873000e-01,-0.0320312,0.0107031,0.04125,-0.173594
-4.872000e-01,-0.0319531,0.00976562,0.0410156,-0.17875
-4.871000e-01,-0.0339844,0.0096875,0.0409375,-0.181094
-4.870000e-01,-0.0357813,0.0115625,0.0411719,-0.186406
-4.869000e-01,-0.0359375,0.0125781,0.0414062,-0.189062
-4.868000e-01,-0.0334375,0.0110937,0.0410938,-0.192188
-4.867000e-01,-0.0325781,0.00976562,0.0414062,-0.195469
-4.866000e-01,-0.03375,0.01,0.0413281,-0.19875
-4.865000e-01,-0.0353125,0.0117969,0.0414844,-0.204219
-4.864000e-01,-0.0360156,0.0114844,0.0413281,-0.206406
-4.863000e-01,-0.0339063,0.0110156,0.0410156,-0.209219
-4.862000e-01,-0.0339844,0.00960938,0.0411719,-0.212031
-4.861000e-01,-0.0349219,0.00976562,0.0409375,-0.215937
-4.860000e-01,-0.0354687,0.0108594,0.04125,-0.219531
-4.859000e-01,-0.0364844,0.0119531,0.0413281,-0.222656
-4.858000e-01,-0.0371094,0.0122656,0.0407031,-0.226562
-4.857000e-01,-0.0367187,0.0121094,0.0408594,-0.231094
-4.856000e-01,-0.03625,0.0110156,0.0407031,-0.235469
-4.855000e-01,-0.0357031,0.0107031,0.0407031,-0.240625
-4.854000e-01,-0.0364062,0.0114062,0.0415625,-0.244687
-4.853000e-01,-0.0389062,0.0119531,0.04125,-0.250625
-4.852000e-01,-0.0389844,0.0135156,0.0415625,-0.255313
-4.851000e-01,-0.0396875,0.0122656,0.0407031,-0.259688
-4.850000e-01,-0.0391406,0.0108594,0.0400781,-0.266563
-4.849000e-01,-0.0396094,0.00929688,0.0396875,-0.270156
-4.848000e-01,-0.0405469,0.0103125,0.0400781,-0.275156
-4.847000e-01,-0.0414062,0.0107031,0.0401563,-0.2775
-4.846000e-01,-0.0404688,0.0113281,0.0401563,-0.281094
-4.845000e-01,-0.0396094,0.0107031,0.0404687,-0.286406
-4.844000e-01,-0.0396094,0.0109375,0.0402344,-0.290781
-4.843000e-01,-0.0390625,0.0117969,0.0407031,-0.294688
-4.842000e-01,-0.0379688,0.0117969,0.0409375,-0.298437
-4.841000e-01,-0.0391406,0.011875,0.0404687,-0.301094
-4.840000e-01,-0.0405469,0.0125781,0.0404687,-0.305
-4.839000e-01,-0.040625,0.0123438,0.0405469,-0.308125
-4.838000e-01,-0.0409375,0.0123438,0.040625,-0.310781
-4.837000e-01,-0.0420312,0.0117969,0.0403906,-0.314375
-4.836000e-01,-0.0421094,0.0120313,0.0404687,-0.318125
-4.835000e-01,-0.0420312,0.0125781,0.0399219,-0.320312
-4.834000e-01,-0.0425781,0.0123438,0.039375,-0.322969
-4.833000e-01,-0.0419531,0.0123438,0.0397656,-0.324844
-4.832000e-01,-0.0420312,0.0114844,0.0396094,-0.328594
-4.831000e-01,-0.0422656,0.0115625,0.0400781,-0.331406
-4.830000e-01,-0.044375,0.0122656,0.0400781,-0.336094
-4.829000e-01,-0.0439844,0.0138281,0.0398437,-0.338906
-4.828000e-01,-0.0434375,0.0130469,0.0400781,-0.3425
-4.827000e-01,-0.0416406,0.0119531,0.0402344,-0.344688
-4.826000e-01,-0.0423438,0.0109375,0.0402344,-0.347813
-4.825000e-01,-0.0434375,0.013125,0.0399219,-0.354219
-4.824000e-01,-0.0432813,0.0135938,0.0396094,-0.357344
-4.823000e-01,-0.04,0.010625,0.0396094,-0.359688
-4.822000e-01,-0.0408594,0.00953125,0.0397656,-0.364688
-4.821000e-01,-0.0459375,0.0127344,0.0396875,-0.3675
-4.820000e-01,-0.0469531,0.0128125,0.039375,-0.372031
-4.819000e-01,-0.0408594,0.00929688,0.0389844,-0.377969
-4.818000e-01,-0.0391406,0.00632813,0.0391406,-0.379531
-4.817000e-01,-0.0439844,0.01,0.0395313,-0.381563
-4.816000e-01,-0.0469531,0.014375,0.0392969,-0.385156
-4.815000e-01,-0.0401563,0.0140625,0.0407031,-0.388594
-4.814000e-01,-0.0366406,0.00882812,0.0401563,-0.392187
-4.813000e-01,-0.0396094,0.0096875,0.0408594,-0.394375
-4.812000e-01,-0.0423438,0.0132813,0.040625,-0.401094
-4.811000e-01,-0.0394531,0.0133594,0.0410938,-0.402031
-4.810000e-01,-0.0361719,0.01,0.0402344,-0.405156
-4.809000e-01,-0.0370313,0.00882812,0.0405469,-0.408594
-4.808000e-01,-0.0394531,0.0115625,0.0405469,-0.409687
-4.807000e-01,-0.0392969,0.0123438,0.0404687,-0.414531
-4.806000e-01,-0.0371875,0.0101562,0.0403906,-0.421094
-4.805000e-01,-0.0367187,0.00867188,0.0403906,-0.420937
-4.804000e-01,-0.03875,0.00921875,0.0399219,-0.426719
-4.803000e-01,-0.0388281,0.0096875,0.0397656,-0.427969
-4.802000e-01,-0.0355469,0.0096875,0.0396094,-0.43125
-4.801000e-01,-0.0357813,0.00796875,0.0396094,-0.434844
-4.800000e-01,-0.03625,0.00773438,0.0396094,-0.437656
-4.799000e-01,-0.0367187,0.0090625,0.0398437,-0.439844
-4.798000e-01,-0.03625,0.00820312,0.0394531,-0.446563
-4.797000e-01,-0.0340625,0.00828125,0.04,-0.448438
-4.796000e-01,-0.0333594,0.00671875,0.0396094,-0.451875
-4.795000e-01,-0.0339844,0.00796875,0.0402344,-0.453906
-4.794000e-01,-0.0339844,0.0084375,0.0405469,-0.455781
-4.793000e-01,-0.0332031,0.00695313,0.0396875,-0.458594
-4.792000e-01,-0.0321875,0.0059375,0.0396875,-0.461875
-4.791000e-01,-0.0327344,0.00671875,0.0395313,-0.465625
-4.790000e-01,-0.0340625,0.0078125,0.0392187,-0.466719
-4.789000e-01,-0.0330469,0.00773438,0.0396094,-0.47125
-4.788000e-01,-0.03375,0.00710938,0.0396094,-0.471875
-4.787000e-01,-0.035,0.00695313,0.039375,-0.473906
-4.786000e-01,-0.0340625,0.00625,0.0388281,-0.479062
-4.785000e-01,-0.0315625,0.00453125,0.0388281,-0.48125
-4.784000e-01,-0.0314844,0.00328125,0.0384375,-0.484375
-4.783000e-01,-0.0327344,0.00578125,0.0392187,-0.483594
-4.782000e-01,-0.0325781,0.00710938,0.0391406,-0.488281
-4.781000e-01,-0.031875,0.0065625,0.0391406,-0.488594
-4.780000e-01,-0.0305469,0.00546875,0.0392969,-0.492031
-4.779000e-01,-0.0307812,0.00585938,0.039375,-0.493594
-4.778000e-01,-0.0320312,0.00671875,0.0394531,-0.495781
-4.777000e-01,-0.0315625,0.00632813,0.0397656,-0.499062
-4.776000e-01,-0.0302344,0.00515625,0.0396875,-0.500938
-4.775000e-01,-0.0292188,0.00453125,0.0396875,-0.502969
-4.774000e-01,-0.0314844,0.00484375,0.0398437,-0.506563
-4.773000e-01,-0.03375,0.00679688,0.0391406,-0.506094
-4.772000e-01,-0.0334375,0.00609375,0.0390625,-0.508906
-4.771000e-01,-0.0315625,0.00515625,0.0396094,-0.510938
-4.770000e-01,-0.0307812,0.0040625,0.0396094,-0.512812
-4.769000e-01,-0.0316406,0.00429687,0.0389844,-0.517969
-4.768000e-01,-0.0296875,0.00515625,0.0394531,-0.517813
-4.767000e-01,-0.0285156,0.00265625,0.0391406,-0.520313
-4.766000e-01,-0.0278125,0.00304688,0.0392969,-0.523594
-4.765000e-01,-0.0308594,0.0046875,0.0392969,-0.525469
-4.764000e-01,-0.0305469,0.00570313,0.0395313,-0.525
-4.763000e-01,-0.0267188,0.00328125,0.0396094,-0.529531
-4.762000e-01,-0.0252344,0.00132812,0.0397656,-0.529219
-4.761000e-01,-0.0275,0.00320313,0.0397656,-0.533125
-4.760000e-01,-0.0300781,0.0059375,0.0395313,-0.53625
-4.759000e-01,-0.0276562,0.00484375,0.039375,-0.538438
-4.758000e-01,-0.0263281,0.00296875,0.0392969,-0.538438
-4.757000e-01,-0.0278906,0.003125,0.0396875,-0.540469
-4.756000e-01,-0.0291406,0.005,0.0395313,-0.541562
-4.755000e-01,-0.0265625,0.00453125,0.0395313,-0.54125
-4.754000e-01,-0.0259375,0.00234375,0.0391406,-0.5425
-4.753000e-01,-0.0276562,0.0028125,0.0392187,-0.545625
-4.752000e-01,-0.0305469,0.00484375,0.039375,-0.547188
-4.751000e-01,-0.028125,0.0053125,0.0397656,-0.548437
-4.750000e-01,-0.0235938,0.00382813,0.0399219,-0.550469
-4.749000e-01,-0.023125,0.00335938,0.0407031,-0.551719
-4.748000e-01,-0.0254687,0.004375,0.0410156,-0.552031
-4.747000e-01,-0.026875,0.005625,0.040625,-0.552344
-4.746000e-01,-0.0265625,0.00523437,0.0399219,-0.553594
-4.745000e-01,-0.0258594,0.00304688,0.0397656,-0.55625
-4.744000e-01,-0.0260938,0.0021875,0.0398437,-0.557813
-4.743000e-01,-0.0274219,0.003125,0.0400781,-0.557813
-4.742000e-01,-0.0292188,0.00492187,0.0400781,-0.558125
-4.741000e-01,-0.0278125,0.00515625,0.0405469,-0.558125
-4.740000e-01,-0.024375,0.00226563,0.0400781,-0.559844
-4.739000e-01,-0.0239844,0.000703125,0.0405469,-0.561094
-4.738000e-01,-0.0286719,0.0034375,0.040625,-0.558438
-4.737000e-01,-0.0317969,0.00671875,0.0404687,-0.5625
-4.736000e-01,-0.0289844,0.00578125,0.0404687,-0.561719
-4.735000e-01,-0.0252344,0.00257813,0.0408594,-0.563594
-4.734000e-01,-0.0258594,0.00179688,0.0407812,-0.564688
-4.733000e-01,-0.0292188,0.0040625,0.0403906,-0.564688
-4.732000e-01,-0.0291406,0.00476563,0.0401563,-0.566094
-4.731000e-01,-0.0265625,0.00351563,0.04,-0.564375
-4.730000e-01,-0.0271094,0.00171875,0.0398437,-0.564688
-4.729000e-01,-0.0288281,0.003125,0.0396875,-0.566094
-4.728000e-01,-0.0285937,0.00445313,0.039375,-0.567031
-4.727000e-01,-0.0259375,0.00304688,0.0399219,-0.567969
-4.726000e-01,-0.025625,0.00117188,0.0397656,-0.569531
-4.725000e-01,-0.0267969,0.00296875,0.0400781,-0.567969
-4.724000e-01,-0.03,0.00460937,0.039375,-0.568281
-4.723000e-01,-0.0292969,0.00515625,0.039375,-0.568437
-4.722000e-01,-0.0267969,0.003125,0.0392969,-0.571094
-4.721000e-01,-0.0253125,0.0021875,0.04,-0.570625
-4.720000e-01,-0.0272656,0.00398438,0.0399219,-0.572188
-4.719000e-01,-0.0292188,0.00492187,0.0402344,-0.571875
-4.718000e-01,-0.0271094,0.00414063,0.040625,-0.572344
-4.717000e-01,-0.0269531,0.001875,0.0398437,-0.57125
-4.716000e-01,-0.0278125,0.0021875,0.04,-0.571875
-4.715000e-01,-0.0285156,0.00359375,0.0405469,-0.572812
-4.714000e-01,-0.0280469,0.00414063,0.0401563,-0.573281
-4.713000e-01,-0.0270313,0.00351563,0.0403906,-0.571406
-4.712000e-01,-0.0284375,0.00304688,0.0398437,-0.572344
-4.711000e-01,-0.028125,0.00320313,0.0403906,-0.573281
-4.710000e-01,-0.0264844,0.00171875,0.0398437,-0.571875
-4.709000e-01,-0.024375,0.00171875,0.0396875,-0.5725
-4.708000e-01,-0.0264844,0.0025,0.04,-0.571719
-4.707000e-01,-0.0266406,0.0053125,0.0411719,-0.572031
-4.706000e-01,-0.0253125,0.00617188,0.04125,-0.571719
-4.705000e-01,-0.024375,0.00445313,0.0415625,-0.571719
-4.704000e-01,-0.0239063,0.00359375,0.0414844,-0.571875
-4.703000e-01,-0.0247656,0.00484375,0.0410938,-0.57
-4.702000e-01,-0.0257813,0.00640625,0.0405469,-0.570938
-4.701000e-01,-0.025625,0.00679688,0.0402344,-0.569375
-4.700000e-01,-0.0250781,0.00695313,0.0407031,-0.569844
-4.699000e-01,-0.0246094,0.00617188,0.0411719,-0.56875
-4.698000e-01,-0.0233594,0.00484375,0.0413281,-0.5675
-4.697000e-01,-0.0229687,0.00335938,0.0407812,-0.569219
-4.696000e-01,-0.0247656,0.00390625,0.0403906,-0.570312
-4.695000e-01,-0.02625,0.00632813,0.0404687,-0.567813
-4.694000e-01,-0.0280469,0.0065625,0.0401563,-0.567188
-4.693000e-01,-0.0248438,0.005,0.0408594,-0.567344
-4.692000e-01,-0.0235156,0.0028125,0.0409375,-0.566094
-4.691000e-01,-0.0257813,0.003125,0.0407812,-0.565313
-4.690000e-01,-0.0272656,0.00507813,0.0407812,-0.564219
-4.689000e-01,-0.0253125,0.00429687,0.0407812,-0.564531
-4.688000e-01,-0.025,0.00382813,0.0409375,-0.565625
-4.687000e-01,-0.0269531,0.00523437,0.0411719,-0.565781
-4.686000e-01,-0.0257813,0.00640625,0.0410938,-0.562813
-4.685000e-01,-0.0228906,0.00523437,0.0414844,-0.559687
-4.684000e-01,-0.0246875,0.00492187,0.0414062,-0.560313
-4.683000e-01,-0.0278906,0.00632813,0.0413281,-0.55875
-4.682000e-01,-0.0277344,0.00617188,0.0407812,-0.558594
-4.681000e-01,-0.0277344,0.00507813,0.0402344,-0.558594
-4.680000e-01,-0.0267188,0.00453125,0.0408594,-0.556094
-4.679000e-01,-0.0276562,0.00460937,0.0402344,-0.555313
-4.678000e-01,-0.0289844,0.00445313,0.0398437,-0.556094
-4.677000e-01,-0.0285156,0.00523437,0.0405469,-0.55125
-4.676000e-01,-0.0283594,0.00476563,0.0405469,-0.551563
-4.675000e-01,-0.0277344,0.0046875,0.0407812,-0.55
-4.674000e-01,-0.0275,0.00453125,0.0413281,-0.548437
-4.673000e-01,-0.0285156,0.00507813,0.0408594,-0.547969
-4.672000e-01,-0.0279688,0.00546875,0.0407812,-0.547031
-4.671000e-01,-0.0282813,0.00585938,0.0410156,-0.543906
-4.670000e-01,-0.0286719,0.005,0.0404687,-0.544375
-4.669000e-01,-0.028125,0.0046875,0.0403906,-0.540781
-4.668000e-01,-0.0289844,0.004375,0.0405469,-0.539688
-4.667000e-01,-0.0301563,0.00601563,0.0407031,-0.537031
-4.666000e-01,-0.0297656,0.00625,0.0408594,-0.536406
-4.665000e-01,-0.0282031,0.004375,0.0407031,-0.535313
-4.664000e-01,-0.0264844,0.00320313,0.0408594,-0.531875
-4.663000e-01,-0.0280469,0.00445313,0.0402344,-0.530469
-4.662000e-01,-0.0317188,0.00640625,0.0403906,-0.529688
-4.661000e-01,-0.0302344,0.00585938,0.040625,-0.531719
-4.660000e-01,-0.0289844,0.00351563,0.0402344,-0.525937
-4.659000e-01,-0.0300781,0.00398438,0.0400781,-0.523281
-4.658000e-01,-0.0330469,0.0065625,0.0400781,-0.523281
-4.657000e-01,-0.0325,0.00703125,0.0397656,-0.520469
-4.656000e-01,-0.0291406,0.00570313,0.0401563,-0.517656
-4.655000e-01,-0.0300781,0.00445313,0.0399219,-0.5175
-4.654000e-01,-0.0325,0.00625,0.0399219,-0.513281
-4.653000e-01,-0.0315625,0.00820312,0.0407031,-0.512344
-4.652000e-01,-0.0309375,0.00632813,0.0398437,-0.511406
-4.651000e-01,-0.0319531,0.005,0.0396094,-0.508906
-4.650000e-01,-0.0353125,0.00570313,0.0395313,-0.505937
-4.649000e-01,-0.0364844,0.00695313,0.0396875,-0.502813
-4.648000e-01,-0.0349219,0.00585938,0.04,-0.500781
-4.647000e-01,-0.0335938,0.004375,0.0403906,-0.498125
-4.646000e-01,-0.0353125,0.00414063,0.0395313,-0.497344
-4.645000e-01,-0.035,0.00539063,0.0403906,-0.493281
-4.644000e-01,-0.0332812,0.00539063,0.0402344,-0.490469
-4.643000e-01,-0.0322656,0.0053125,0.0400781,-0.490469
